{
    "current_page": 3,
    "data": [
        {
            "id": 32276742,
            "store_id": 11,
            "item_id": 43,
            "sku_id": 1319,
            "sku_name": "颜色:F36980 黄油丨 Mango 仓　鞋码:46",
            "monitor_price": "1879.00",
            "price_from": "2219.00",
            "price_to": "1819.00",
            "diff_amount": "-400.00",
            "status": 10,
            "error_message": "",
            "req_backup": "{\"sku_id\":\"1319\",\"new_price\":\"1879\",\"price_percent\":\"96.5\",\"diff_amount\":\"0\",\"mode\":\"price_percent\",\"is_temporary_start\":\"0\",\"token\":\"84mp\"}",
            "created_at": "2019-04-30 10:28:40",
            "updated_at": "2019-04-30 10:28:40",
            "item": {
                "id": 43,
                "store_id": 11,
                "name": "无忧 Adidas Yeezy Boost 350V2 纯白 黄油 白斑马芝麻椰子CP9366",
                "price": "1629.00",
                "price_range": "1959.00-3649.00",
                "cover_image": "https://img.alicdn.com/bao/uploaded/i2/2266423121/O1CN01qeybVj1YvSdtMtD5e_!!2266423121.jpg",
                "raw_num_iid": "577094734925",
                "is_bind": 1,
                "is_start": 0,
                "is_only_up": 0,
                "is_mod_nine": 1,
                "sku_num": 64,
                "sku_binded_num": 64,
                "created_at": "2019-01-24 18:24:17",
                "updated_at": "2019-04-30 15:27:58",
                "deleted_at": null
            }
        },
        {
            "id": 32276726,
            "store_id": 11,
            "item_id": 43,
            "sku_id": 1318,
            "sku_name": "颜色:F36980 黄油丨 Mango 仓　鞋码:45",
            "monitor_price": "1919.00",
            "price_from": "2269.00",
            "price_to": "1859.00",
            "diff_amount": "-410.00",
            "status": 10,
            "error_message": "",
            "req_backup": "{\"sku_id\":\"1318\",\"new_price\":\"1919\",\"price_percent\":\"96.5\",\"diff_amount\":\"0\",\"mode\":\"price_percent\",\"is_temporary_start\":\"0\",\"token\":\"84mp\"}",
            "created_at": "2019-04-30 10:28:40",
            "updated_at": "2019-04-30 10:28:40",
            "item": {
                "id": 43,
                "store_id": 11,
                "name": "无忧 Adidas Yeezy Boost 350V2 纯白 黄油 白斑马芝麻椰子CP9366",
                "price": "1629.00",
                "price_range": "1959.00-3649.00",
                "cover_image": "https://img.alicdn.com/bao/uploaded/i2/2266423121/O1CN01qeybVj1YvSdtMtD5e_!!2266423121.jpg",
                "raw_num_iid": "577094734925",
                "is_bind": 1,
                "is_start": 0,
                "is_only_up": 0,
                "is_mod_nine": 1,
                "sku_num": 64,
                "sku_binded_num": 64,
                "created_at": "2019-01-24 18:24:17",
                "updated_at": "2019-04-30 15:27:58",
                "deleted_at": null
            }
        },
        {
            "id": 32276270,
            "store_id": 11,
            "item_id": 17729,
            "sku_id": 537091,
            "sku_name": "颜色:162050C# 1970S 黑高　鞋码:40",
            "monitor_price": "1849.00",
            "price_from": "689.00",
            "price_to": "1799.00",
            "diff_amount": "1110.00",
            "status": 10,
            "error_message": "",
            "req_backup": "{\"sku_id\":\"537091\",\"new_price\":\"1849\",\"price_percent\":\"97.0\",\"diff_amount\":\"0\",\"mode\":\"price_percent\",\"is_temporary_start\":\"0\",\"token\":\"84mp\"}",
            "created_at": "2019-04-30 10:28:16",
            "updated_at": "2019-04-30 10:28:16",
            "item": {
                "id": 17729,
                "store_id": 11,
                "name": "Converse 匡威1970S三星标帆布鞋黑色高帮黄高帮142334C 162050c",
                "price": "519.00",
                "price_range": "489.00-2659.00",
                "cover_image": "https://img.alicdn.com/bao/uploaded/i1/2266423121/O1CN011YvSa5U0XfAuJGK_!!2266423121.jpg",
                "raw_num_iid": "577904942451",
                "is_bind": 0,
                "is_start": 0,
                "is_only_up": 0,
                "is_mod_nine": 1,
                "sku_num": 48,
                "sku_binded_num": 0,
                "created_at": "2019-04-29 20:19:16",
                "updated_at": "2019-04-30 15:22:06",
                "deleted_at": "2019-04-30 15:22:06"
            }
        },
        {
            "id": 32274705,
            "store_id": 11,
            "item_id": 43,
            "sku_id": 1265,
            "sku_name": "颜色:CP9366 纯白 丨 Mango 仓　鞋码:36.5",
            "monitor_price": "2599.00",
            "price_from": "2398.00",
            "price_to": "2509.00",
            "diff_amount": "111.00",
            "status": 10,
            "error_message": "",
            "req_backup": "{\"sku_id\":\"1265\",\"new_price\":\"2599\",\"price_percent\":\"96.5\",\"diff_amount\":\"0\",\"mode\":\"price_percent\",\"is_temporary_start\":\"0\",\"token\":\"84mp\"}",
            "created_at": "2019-04-30 10:26:50",
            "updated_at": "2019-04-30 10:26:50",
            "item": {
                "id": 43,
                "store_id": 11,
                "name": "无忧 Adidas Yeezy Boost 350V2 纯白 黄油 白斑马芝麻椰子CP9366",
                "price": "1629.00",
                "price_range": "1959.00-3649.00",
                "cover_image": "https://img.alicdn.com/bao/uploaded/i2/2266423121/O1CN01qeybVj1YvSdtMtD5e_!!2266423121.jpg",
                "raw_num_iid": "577094734925",
                "is_bind": 1,
                "is_start": 0,
                "is_only_up": 0,
                "is_mod_nine": 1,
                "sku_num": 64,
                "sku_binded_num": 64,
                "created_at": "2019-01-24 18:24:17",
                "updated_at": "2019-04-30 15:27:58",
                "deleted_at": null
            }
        },
        {
            "id": 32273555,
            "store_id": 11,
            "item_id": 9,
            "sku_id": 284,
            "sku_name": "颜色:414571-104#熊猫现货 男　鞋码:44.5",
            "monitor_price": "1949.00",
            "price_from": "1968.00",
            "price_to": "1910.02",
            "diff_amount": "-57.98",
            "status": 21,
            "error_message": "您选择了只改涨不改跌",
            "req_backup": "{\"sku_id\":\"284\",\"new_price\":\"1949\",\"price_percent\":\"98.0\",\"diff_amount\":\"0\",\"mode\":\"price_percent\",\"is_temporary_start\":\"0\",\"token\":\"84mp\"}",
            "created_at": "2019-04-30 10:25:58",
            "updated_at": "2019-04-30 10:25:58",
            "item": {
                "id": 9,
                "store_id": 11,
                "name": "格物体育 Air Jordan 13 AJ13黑白熊猫篮球18年复刻 414571-104",
                "price": "1386.13",
                "price_range": "1386.13-2579.00",
                "cover_image": "https://img.alicdn.com/bao/uploaded/i2/2266423121/O1CN011YvSZoQRpFbfE1a_!!2266423121.jpg",
                "raw_num_iid": "573495059158",
                "is_bind": 1,
                "is_start": 1,
                "is_only_up": 1,
                "is_mod_nine": 0,
                "sku_num": 34,
                "sku_binded_num": 17,
                "created_at": "2019-01-24 18:24:17",
                "updated_at": "2019-04-30 15:22:39",
                "deleted_at": null
            }
        }
    ],
    "first_page_url": "http://www.taobaos.com/store/change-price-log?page=1",
    "from": 41,
    "last_page": 996,
    "last_page_url": "http://www.taobaos.com/store/change-price-log?page=996",
    "next_page_url": "http://www.taobaos.com/store/change-price-log?page=4",
    "path": "http://www.taobaos.com/store/change-price-log",
    "per_page": 20,
    "prev_page_url": "http://www.taobaos.com/store/change-price-log?page=2",
    "to": 60,
    "total": 19919
}